^C:\USERS\EMILIO\DOCUMENTS\VISUAL STUDIO 2010\PROJECTS\SIM\SIM\DEBUG\SIM.EXE.INTERMEDIATE.MANIFEST
C:\WINDOWS\REGISTRATION\R000000000015.CLB
C:\WINDOWS\MICROSOFT.NET\FRAMEWORK\V2.0.50727\MSCORWKS.DLL
C:\WINDOWS\MICROSOFT.NET\FRAMEWORK\V4.0.30319\CLR.DLL
C:\PROGRAM FILES (X86)\MICROSOFT SDKS\WINDOWS\V7.0A\BIN\MT.EXE.CONFIG
C:\USERS\EMILIO\DOCUMENTS\VISUAL STUDIO 2010\PROJECTS\SIM\DEBUG\SIM.EXE
