^C:\USERS\EMILIO\DOCUMENTS\VISUAL STUDIO 2010\PROJECTS\SIM\SIM\APP.RC
C:\USERS\EMILIO\DOCUMENTS\VISUAL STUDIO 2010\PROJECTS\SIM\SIM\RESOURCE.H
C:\USERS\EMILIO\DOCUMENTS\VISUAL STUDIO 2010\PROJECTS\SIM\SIM\APP.ICO
