^C:\USERS\EMILIO\APPDATA\LOCAL\TEMP\.NETFRAMEWORK,VERSION=V4.5.ASSEMBLYATTRIBUTES.CPP
C:\USERS\EMILIO\APPDATA\LOCAL\TEMP\.NETFRAMEWORK,VERSION=V4.5.ASSEMBLYATTRIBUTES.CPP
C:\PROGRAM FILES (X86)\MICROSOFT VISUAL STUDIO 12.0\VC\BIN\1033\CLUI.DLL
C:\WINDOWS\GLOBALIZATION\SORTING\SORTDEFAULT.NLS
C:\WINDOWS\MICROSOFT.NET\FRAMEWORK\V2.0.50727\MSCORWKS.DLL
C:\WINDOWS\MICROSOFT.NET\FRAMEWORK\V4.0.30319\CLR.DLL
C:\PROGRAM FILES (X86)\MICROSOFT VISUAL STUDIO 12.0\VC\BIN\CL.EXE.CONFIG
C:\WINDOWS\SYSTEM32\TZRES.DLL
C:\WINDOWS\MICROSOFT.NET\FRAMEWORK\V4.0.30319\MSCORLIB.DLL
^C:\USERS\EMILIO\DOCUMENTS\VISUAL STUDIO 2010\PROJECTS\SIM\SIM\STDAFX.CPP
C:\USERS\EMILIO\DOCUMENTS\VISUAL STUDIO 2010\PROJECTS\SIM\SIM\STDAFX.CPP
C:\PROGRAM FILES (X86)\MICROSOFT VISUAL STUDIO 12.0\VC\BIN\1033\CLUI.DLL
C:\WINDOWS\GLOBALIZATION\SORTING\SORTDEFAULT.NLS
C:\WINDOWS\MICROSOFT.NET\FRAMEWORK\V2.0.50727\MSCORWKS.DLL
C:\WINDOWS\MICROSOFT.NET\FRAMEWORK\V4.0.30319\CLR.DLL
C:\PROGRAM FILES (X86)\MICROSOFT VISUAL STUDIO 12.0\VC\BIN\CL.EXE.CONFIG
C:\WINDOWS\SYSTEM32\TZRES.DLL
C:\PROGRAM FILES (X86)\REFERENCE ASSEMBLIES\MICROSOFT\FRAMEWORK\.NETFRAMEWORK\V4.5\MSCORLIB.DLL
C:\Users\Emilio\Documents\Visual Studio 2010\Projects\SIM\SIM\Debug\SIM.tlog\SYSTEM.DLL.metagen
C:\Users\Emilio\Documents\Visual Studio 2010\Projects\SIM\SIM\Debug\SIM.tlog\SYSTEM.DRAWING.DLL.metagen
C:\Users\Emilio\Documents\Visual Studio 2010\Projects\SIM\SIM\Debug\SIM.tlog\SYSTEM.WINDOWS.FORMS.DLL.metagen
C:\Users\Emilio\Documents\Visual Studio 2010\Projects\SIM\SIM\Debug\SIM.tlog\SYSTEM.XML.DLL.metagen
C:\USERS\EMILIO\DOCUMENTS\VISUAL STUDIO 2010\PROJECTS\SIM\SIM\STDAFX.H
C:\PROGRAM FILES (X86)\REFERENCE ASSEMBLIES\MICROSOFT\FRAMEWORK\.NETFRAMEWORK\V4.0\MSCORLIB.DLL
C:\Users\Emilio\Documents\Visual Studio 2010\Projects\SIM\SIM\Debug\SIM.tlog\SYSTEM.DATA.DLL.metagen
C:\PROGRAM FILES (X86)\REFERENCE ASSEMBLIES\MICROSOFT\FRAMEWORK\.NETFRAMEWORK\V4.5\SYSTEM.DATA.DLL
C:\PROGRAM FILES (X86)\REFERENCE ASSEMBLIES\MICROSOFT\FRAMEWORK\.NETFRAMEWORK\V4.5\SYSTEM.DLL
C:\PROGRAM FILES (X86)\REFERENCE ASSEMBLIES\MICROSOFT\FRAMEWORK\.NETFRAMEWORK\V4.5\SYSTEM.DRAWING.DLL
C:\PROGRAM FILES (X86)\REFERENCE ASSEMBLIES\MICROSOFT\FRAMEWORK\.NETFRAMEWORK\V4.5\SYSTEM.WINDOWS.FORMS.DLL
C:\PROGRAM FILES (X86)\REFERENCE ASSEMBLIES\MICROSOFT\FRAMEWORK\.NETFRAMEWORK\V4.5\SYSTEM.XML.DLL
^C:\USERS\EMILIO\DOCUMENTS\VISUAL STUDIO 2010\PROJECTS\SIM\SIM\ASSEMBLYINFO.CPP
C:\USERS\EMILIO\DOCUMENTS\VISUAL STUDIO 2010\PROJECTS\SIM\SIM\ASSEMBLYINFO.CPP
C:\USERS\EMILIO\DOCUMENTS\VISUAL STUDIO 2010\PROJECTS\SIM\SIM\DEBUG\SIM.PCH
C:\PROGRAM FILES (X86)\MICROSOFT VISUAL STUDIO 12.0\VC\BIN\CL.EXE.CONFIG
C:\WINDOWS\MICROSOFT.NET\FRAMEWORK\V4.0.30319\CLR.DLL
C:\PROGRAM FILES (X86)\REFERENCE ASSEMBLIES\MICROSOFT\FRAMEWORK\.NETFRAMEWORK\V4.5\MSCORLIB.DLL
C:\Users\Emilio\Documents\Visual Studio 2010\Projects\SIM\SIM\Debug\SIM.tlog\SYSTEM.DLL.metagen
C:\Users\Emilio\Documents\Visual Studio 2010\Projects\SIM\SIM\Debug\SIM.tlog\SYSTEM.DRAWING.DLL.metagen
C:\Users\Emilio\Documents\Visual Studio 2010\Projects\SIM\SIM\Debug\SIM.tlog\SYSTEM.WINDOWS.FORMS.DLL.metagen
C:\Users\Emilio\Documents\Visual Studio 2010\Projects\SIM\SIM\Debug\SIM.tlog\SYSTEM.XML.DLL.metagen
C:\USERS\EMILIO\DOCUMENTS\VISUAL STUDIO 2010\PROJECTS\SIM\SIM\DEBUG\STDAFX.OBJ
C:\PROGRAM FILES (X86)\REFERENCE ASSEMBLIES\MICROSOFT\FRAMEWORK\.NETFRAMEWORK\V4.0\MSCORLIB.DLL
C:\Users\Emilio\Documents\Visual Studio 2010\Projects\SIM\SIM\Debug\SIM.tlog\SYSTEM.DATA.DLL.metagen
C:\PROGRAM FILES (X86)\REFERENCE ASSEMBLIES\MICROSOFT\FRAMEWORK\.NETFRAMEWORK\V4.5\SYSTEM.DATA.DLL
C:\PROGRAM FILES (X86)\REFERENCE ASSEMBLIES\MICROSOFT\FRAMEWORK\.NETFRAMEWORK\V4.5\SYSTEM.DLL
C:\PROGRAM FILES (X86)\REFERENCE ASSEMBLIES\MICROSOFT\FRAMEWORK\.NETFRAMEWORK\V4.5\SYSTEM.DRAWING.DLL
C:\PROGRAM FILES (X86)\REFERENCE ASSEMBLIES\MICROSOFT\FRAMEWORK\.NETFRAMEWORK\V4.5\SYSTEM.WINDOWS.FORMS.DLL
C:\PROGRAM FILES (X86)\REFERENCE ASSEMBLIES\MICROSOFT\FRAMEWORK\.NETFRAMEWORK\V4.5\SYSTEM.XML.DLL
^C:\USERS\EMILIO\APPDATA\LOCAL\TEMP\.NETFRAMEWORK,VERSION=V4.0.ASSEMBLYATTRIBUTES.CPP
C:\USERS\EMILIO\APPDATA\LOCAL\TEMP\.NETFRAMEWORK,VERSION=V4.0.ASSEMBLYATTRIBUTES.CPP
C:\PROGRAM FILES (X86)\MICROSOFT VISUAL STUDIO 12.0\VC\BIN\1033\CLUI.DLL
C:\WINDOWS\GLOBALIZATION\SORTING\SORTDEFAULT.NLS
C:\WINDOWS\MICROSOFT.NET\FRAMEWORK\V2.0.50727\MSCORWKS.DLL
C:\WINDOWS\MICROSOFT.NET\FRAMEWORK\V4.0.30319\CLR.DLL
C:\PROGRAM FILES (X86)\MICROSOFT VISUAL STUDIO 12.0\VC\BIN\CL.EXE.CONFIG
C:\WINDOWS\SYSTEM32\TZRES.DLL
C:\WINDOWS\MICROSOFT.NET\FRAMEWORK\V4.0.30319\MSCORLIB.DLL
^C:\USERS\EMILIO\DOCUMENTS\VISUAL STUDIO 2010\PROJECTS\SIM\SIM\SIM.CPP
C:\USERS\EMILIO\DOCUMENTS\VISUAL STUDIO 2010\PROJECTS\SIM\SIM\SIM.CPP
C:\PROGRAM FILES (X86)\MICROSOFT VISUAL STUDIO 12.0\VC\BIN\1033\CLUI.DLL
C:\WINDOWS\GLOBALIZATION\SORTING\SORTDEFAULT.NLS
C:\WINDOWS\MICROSOFT.NET\FRAMEWORK\V2.0.50727\MSCORWKS.DLL
C:\WINDOWS\MICROSOFT.NET\FRAMEWORK\V4.0.30319\CLR.DLL
C:\PROGRAM FILES (X86)\MICROSOFT VISUAL STUDIO 12.0\VC\BIN\CL.EXE.CONFIG
C:\WINDOWS\SYSTEM32\TZRES.DLL
C:\USERS\EMILIO\DOCUMENTS\VISUAL STUDIO 2010\PROJECTS\SIM\SIM\DEBUG\SIM.PCH
C:\PROGRAM FILES (X86)\REFERENCE ASSEMBLIES\MICROSOFT\FRAMEWORK\.NETFRAMEWORK\V4.5\MSCORLIB.DLL
C:\PROGRAM FILES (X86)\REFERENCE ASSEMBLIES\MICROSOFT\FRAMEWORK\.NETFRAMEWORK\V4.5\SYSTEM.DATA.DLL
C:\PROGRAM FILES (X86)\REFERENCE ASSEMBLIES\MICROSOFT\FRAMEWORK\.NETFRAMEWORK\V4.5\SYSTEM.DLL
C:\PROGRAM FILES (X86)\REFERENCE ASSEMBLIES\MICROSOFT\FRAMEWORK\.NETFRAMEWORK\V4.5\SYSTEM.DRAWING.DLL
C:\PROGRAM FILES (X86)\REFERENCE ASSEMBLIES\MICROSOFT\FRAMEWORK\.NETFRAMEWORK\V4.5\SYSTEM.WINDOWS.FORMS.DLL
C:\PROGRAM FILES (X86)\REFERENCE ASSEMBLIES\MICROSOFT\FRAMEWORK\.NETFRAMEWORK\V4.5\SYSTEM.XML.DLL
C:\USERS\EMILIO\DOCUMENTS\VISUAL STUDIO 2010\PROJECTS\SIM\SIM\DEBUG\STDAFX.OBJ
C:\USERS\EMILIO\DOCUMENTS\VISUAL STUDIO 2010\PROJECTS\SIM\SIM\FORM1.H
C:\PROGRAM FILES (X86)\MICROSOFT VISUAL STUDIO 12.0\VC\INCLUDE\LIMITS
C:\PROGRAM FILES (X86)\MICROSOFT VISUAL STUDIO 12.0\VC\INCLUDE\YMATH.H
C:\PROGRAM FILES (X86)\MICROSOFT VISUAL STUDIO 12.0\VC\INCLUDE\YVALS.H
C:\PROGRAM FILES (X86)\MICROSOFT VISUAL STUDIO 12.0\VC\INCLUDE\XKEYCHECK.H
C:\PROGRAM FILES (X86)\MICROSOFT VISUAL STUDIO 12.0\VC\INCLUDE\CRTDEFS.H
C:\PROGRAM FILES (X86)\MICROSOFT VISUAL STUDIO 12.0\VC\INCLUDE\SAL.H
C:\PROGRAM FILES (X86)\MICROSOFT VISUAL STUDIO 12.0\VC\INCLUDE\CONCURRENCYSAL.H
C:\PROGRAM FILES (X86)\MICROSOFT VISUAL STUDIO 12.0\VC\INCLUDE\VADEFS.H
C:\PROGRAM FILES (X86)\MICROSOFT VISUAL STUDIO 12.0\VC\INCLUDE\USE_ANSI.H
C:\PROGRAM FILES (X86)\MICROSOFT VISUAL STUDIO 12.0\VC\INCLUDE\CFLOAT
C:\PROGRAM FILES (X86)\MICROSOFT VISUAL STUDIO 12.0\VC\INCLUDE\FLOAT.H
C:\PROGRAM FILES (X86)\MICROSOFT VISUAL STUDIO 12.0\VC\INCLUDE\CRTWRN.H
C:\PROGRAM FILES (X86)\MICROSOFT VISUAL STUDIO 12.0\VC\INCLUDE\CLIMITS
C:\PROGRAM FILES (X86)\MICROSOFT VISUAL STUDIO 12.0\VC\INCLUDE\LIMITS.H
C:\PROGRAM FILES (X86)\MICROSOFT VISUAL STUDIO 12.0\VC\INCLUDE\CMATH
C:\PROGRAM FILES (X86)\MICROSOFT VISUAL STUDIO 12.0\VC\INCLUDE\MATH.H
C:\PROGRAM FILES (X86)\MICROSOFT VISUAL STUDIO 12.0\VC\INCLUDE\XTGMATH.H
C:\PROGRAM FILES (X86)\MICROSOFT VISUAL STUDIO 12.0\VC\INCLUDE\XTR1COMMON
C:\PROGRAM FILES (X86)\MICROSOFT VISUAL STUDIO 12.0\VC\INCLUDE\CWCHAR
C:\PROGRAM FILES (X86)\MICROSOFT VISUAL STUDIO 12.0\VC\INCLUDE\WCHAR.H
C:\PROGRAM FILES (X86)\MICROSOFT VISUAL STUDIO 12.0\VC\INCLUDE\SWPRINTF.INL
C:\PROGRAM FILES (X86)\MICROSOFT VISUAL STUDIO 12.0\VC\INCLUDE\WTIME.INL
C:\PROGRAM FILES (X86)\MICROSOFT VISUAL STUDIO 12.0\VC\INCLUDE\XSTDDEF
C:\PROGRAM FILES (X86)\MICROSOFT VISUAL STUDIO 12.0\VC\INCLUDE\STDLIB.H
C:\PROGRAM FILES (X86)\MICROSOFT VISUAL STUDIO 12.0\VC\INCLUDE\CSTDDEF
C:\PROGRAM FILES (X86)\MICROSOFT VISUAL STUDIO 12.0\VC\INCLUDE\STDDEF.H
C:\PROGRAM FILES (X86)\MICROSOFT VISUAL STUDIO 12.0\VC\INCLUDE\INITIALIZER_LIST
C:\PROGRAM FILES (X86)\MICROSOFT VISUAL STUDIO 12.0\VC\INCLUDE\STRING
C:\PROGRAM FILES (X86)\MICROSOFT VISUAL STUDIO 12.0\VC\INCLUDE\ITERATOR
C:\PROGRAM FILES (X86)\MICROSOFT VISUAL STUDIO 12.0\VC\INCLUDE\ISTREAM
C:\PROGRAM FILES (X86)\MICROSOFT VISUAL STUDIO 12.0\VC\INCLUDE\OSTREAM
C:\PROGRAM FILES (X86)\MICROSOFT VISUAL STUDIO 12.0\VC\INCLUDE\IOS
C:\PROGRAM FILES (X86)\MICROSOFT VISUAL STUDIO 12.0\VC\INCLUDE\XLOCNUM
C:\PROGRAM FILES (X86)\MICROSOFT VISUAL STUDIO 12.0\VC\INCLUDE\CSTDIO
C:\PROGRAM FILES (X86)\MICROSOFT VISUAL STUDIO 12.0\VC\INCLUDE\STDIO.H
C:\PROGRAM FILES (X86)\MICROSOFT VISUAL STUDIO 12.0\VC\INCLUDE\CSTDLIB
C:\PROGRAM FILES (X86)\MICROSOFT VISUAL STUDIO 12.0\VC\INCLUDE\STREAMBUF
C:\PROGRAM FILES (X86)\MICROSOFT VISUAL STUDIO 12.0\VC\INCLUDE\XIOSBASE
C:\PROGRAM FILES (X86)\MICROSOFT VISUAL STUDIO 12.0\VC\INCLUDE\XLOCALE
C:\PROGRAM FILES (X86)\MICROSOFT VISUAL STUDIO 12.0\VC\INCLUDE\CSTRING
C:\PROGRAM FILES (X86)\MICROSOFT VISUAL STUDIO 12.0\VC\INCLUDE\STRING.H
C:\PROGRAM FILES (X86)\MICROSOFT VISUAL STUDIO 12.0\VC\INCLUDE\STDEXCEPT
C:\PROGRAM FILES (X86)\MICROSOFT VISUAL STUDIO 12.0\VC\INCLUDE\EXCEPTION
C:\PROGRAM FILES (X86)\MICROSOFT VISUAL STUDIO 12.0\VC\INCLUDE\EH.H
C:\PROGRAM FILES (X86)\MICROSOFT VISUAL STUDIO 12.0\VC\INCLUDE\MALLOC.H
C:\PROGRAM FILES (X86)\MICROSOFT VISUAL STUDIO 12.0\VC\INCLUDE\XSTRING
C:\PROGRAM FILES (X86)\MICROSOFT VISUAL STUDIO 12.0\VC\INCLUDE\XMEMORY0
C:\PROGRAM FILES (X86)\MICROSOFT VISUAL STUDIO 12.0\VC\INCLUDE\NEW
C:\PROGRAM FILES (X86)\MICROSOFT VISUAL STUDIO 12.0\VC\INCLUDE\XUTILITY
C:\PROGRAM FILES (X86)\MICROSOFT VISUAL STUDIO 12.0\VC\INCLUDE\UTILITY
C:\PROGRAM FILES (X86)\MICROSOFT VISUAL STUDIO 12.0\VC\INCLUDE\IOSFWD
C:\PROGRAM FILES (X86)\MICROSOFT VISUAL STUDIO 12.0\VC\INCLUDE\CRTDBG.H
C:\PROGRAM FILES (X86)\MICROSOFT VISUAL STUDIO 12.0\VC\INCLUDE\TYPE_TRAITS
C:\PROGRAM FILES (X86)\MICROSOFT VISUAL STUDIO 12.0\VC\INCLUDE\XREFWRAP
C:\PROGRAM FILES (X86)\MICROSOFT VISUAL STUDIO 12.0\VC\INCLUDE\XATOMIC0.H
C:\PROGRAM FILES (X86)\MICROSOFT VISUAL STUDIO 12.0\VC\INCLUDE\INTRIN.H
C:\PROGRAM FILES (X86)\MICROSOFT VISUAL STUDIO 12.0\VC\INCLUDE\SETJMP.H
C:\PROGRAM FILES (X86)\MICROSOFT VISUAL STUDIO 12.0\VC\INCLUDE\SETJMPEX.H
C:\PROGRAM FILES (X86)\MICROSOFT VISUAL STUDIO 12.0\VC\INCLUDE\IMMINTRIN.H
C:\PROGRAM FILES (X86)\MICROSOFT VISUAL STUDIO 12.0\VC\INCLUDE\WMMINTRIN.H
C:\PROGRAM FILES (X86)\MICROSOFT VISUAL STUDIO 12.0\VC\INCLUDE\NMMINTRIN.H
C:\PROGRAM FILES (X86)\MICROSOFT VISUAL STUDIO 12.0\VC\INCLUDE\SMMINTRIN.H
C:\PROGRAM FILES (X86)\MICROSOFT VISUAL STUDIO 12.0\VC\INCLUDE\TMMINTRIN.H
C:\PROGRAM FILES (X86)\MICROSOFT VISUAL STUDIO 12.0\VC\INCLUDE\PMMINTRIN.H
C:\PROGRAM FILES (X86)\MICROSOFT VISUAL STUDIO 12.0\VC\INCLUDE\EMMINTRIN.H
C:\PROGRAM FILES (X86)\MICROSOFT VISUAL STUDIO 12.0\VC\INCLUDE\XMMINTRIN.H
C:\PROGRAM FILES (X86)\MICROSOFT VISUAL STUDIO 12.0\VC\INCLUDE\MMINTRIN.H
C:\PROGRAM FILES (X86)\MICROSOFT VISUAL STUDIO 12.0\VC\INCLUDE\AMMINTRIN.H
C:\PROGRAM FILES (X86)\MICROSOFT VISUAL STUDIO 12.0\VC\INCLUDE\MM3DNOW.H
C:\PROGRAM FILES (X86)\MICROSOFT VISUAL STUDIO 12.0\VC\INCLUDE\TYPEINFO
C:\PROGRAM FILES (X86)\MICROSOFT VISUAL STUDIO 12.0\VC\INCLUDE\XLOCINFO
C:\PROGRAM FILES (X86)\MICROSOFT VISUAL STUDIO 12.0\VC\INCLUDE\XLOCINFO.H
C:\PROGRAM FILES (X86)\MICROSOFT VISUAL STUDIO 12.0\VC\INCLUDE\CTYPE.H
C:\PROGRAM FILES (X86)\MICROSOFT VISUAL STUDIO 12.0\VC\INCLUDE\LOCALE.H
C:\PROGRAM FILES (X86)\MICROSOFT VISUAL STUDIO 12.0\VC\INCLUDE\XDEBUG
C:\PROGRAM FILES (X86)\MICROSOFT VISUAL STUDIO 12.0\VC\INCLUDE\XMEMORY
C:\PROGRAM FILES (X86)\MICROSOFT VISUAL STUDIO 12.0\VC\INCLUDE\XFACET
C:\PROGRAM FILES (X86)\MICROSOFT VISUAL STUDIO 12.0\VC\INCLUDE\SYSTEM_ERROR
C:\PROGRAM FILES (X86)\MICROSOFT VISUAL STUDIO 12.0\VC\INCLUDE\CERRNO
C:\PROGRAM FILES (X86)\MICROSOFT VISUAL STUDIO 12.0\VC\INCLUDE\ERRNO.H
C:\PROGRAM FILES (X86)\MICROSOFT VISUAL STUDIO 12.0\VC\INCLUDE\SHARE.H
C:\PROGRAM FILES (X86)\MICROSOFT VISUAL STUDIO 12.0\VC\INCLUDE\MSCLR\MARSHAL.H
C:\PROGRAM FILES (X86)\WINDOWS KITS\8.1\INCLUDE\UM\WINDOWS.H
C:\PROGRAM FILES (X86)\WINDOWS KITS\8.1\INCLUDE\SHARED\WINAPIFAMILY.H
C:\PROGRAM FILES (X86)\WINDOWS KITS\8.1\INCLUDE\SHARED\SDKDDKVER.H
C:\PROGRAM FILES (X86)\MICROSOFT VISUAL STUDIO 12.0\VC\INCLUDE\EXCPT.H
C:\PROGRAM FILES (X86)\MICROSOFT VISUAL STUDIO 12.0\VC\INCLUDE\STDARG.H
C:\PROGRAM FILES (X86)\WINDOWS KITS\8.1\INCLUDE\SHARED\WINDEF.H
C:\PROGRAM FILES (X86)\WINDOWS KITS\8.1\INCLUDE\SHARED\MINWINDEF.H
C:\PROGRAM FILES (X86)\WINDOWS KITS\8.1\INCLUDE\SHARED\SPECSTRINGS.H
C:\PROGRAM FILES (X86)\WINDOWS KITS\8.1\INCLUDE\SHARED\SPECSTRINGS_STRICT.H
C:\PROGRAM FILES (X86)\WINDOWS KITS\8.1\INCLUDE\SHARED\SPECSTRINGS_UNDEF.H
C:\PROGRAM FILES (X86)\WINDOWS KITS\8.1\INCLUDE\SHARED\DRIVERSPECS.H
C:\PROGRAM FILES (X86)\WINDOWS KITS\8.1\INCLUDE\SHARED\SDV_DRIVERSPECS.H
C:\PROGRAM FILES (X86)\WINDOWS KITS\8.1\INCLUDE\UM\WINNT.H
C:\PROGRAM FILES (X86)\WINDOWS KITS\8.1\INCLUDE\SHARED\KERNELSPECS.H
C:\PROGRAM FILES (X86)\WINDOWS KITS\8.1\INCLUDE\SHARED\BASETSD.H
C:\PROGRAM FILES (X86)\WINDOWS KITS\8.1\INCLUDE\SHARED\GUIDDEF.H
C:\PROGRAM FILES (X86)\WINDOWS KITS\8.1\INCLUDE\SHARED\PSHPACK4.H
C:\PROGRAM FILES (X86)\WINDOWS KITS\8.1\INCLUDE\SHARED\POPPACK.H
C:\PROGRAM FILES (X86)\WINDOWS KITS\8.1\INCLUDE\SHARED\PSHPACK2.H
C:\PROGRAM FILES (X86)\WINDOWS KITS\8.1\INCLUDE\SHARED\PSHPACK8.H
C:\PROGRAM FILES (X86)\WINDOWS KITS\8.1\INCLUDE\SHARED\APISET.H
C:\PROGRAM FILES (X86)\WINDOWS KITS\8.1\INCLUDE\SHARED\KTMTYPES.H
C:\PROGRAM FILES (X86)\WINDOWS KITS\8.1\INCLUDE\UM\WINBASE.H
C:\PROGRAM FILES (X86)\WINDOWS KITS\8.1\INCLUDE\SHARED\APISETCCONV.H
C:\PROGRAM FILES (X86)\WINDOWS KITS\8.1\INCLUDE\UM\MINWINBASE.H
C:\PROGRAM FILES (X86)\WINDOWS KITS\8.1\INCLUDE\UM\PROCESSENV.H
C:\PROGRAM FILES (X86)\WINDOWS KITS\8.1\INCLUDE\UM\FILEAPI.H
C:\PROGRAM FILES (X86)\WINDOWS KITS\8.1\INCLUDE\UM\DEBUGAPI.H
C:\PROGRAM FILES (X86)\WINDOWS KITS\8.1\INCLUDE\UM\UTILAPISET.H
C:\PROGRAM FILES (X86)\WINDOWS KITS\8.1\INCLUDE\UM\HANDLEAPI.H
C:\PROGRAM FILES (X86)\WINDOWS KITS\8.1\INCLUDE\UM\ERRHANDLINGAPI.H
C:\PROGRAM FILES (X86)\WINDOWS KITS\8.1\INCLUDE\UM\FIBERSAPI.H
C:\PROGRAM FILES (X86)\WINDOWS KITS\8.1\INCLUDE\UM\NAMEDPIPEAPI.H
C:\PROGRAM FILES (X86)\WINDOWS KITS\8.1\INCLUDE\UM\PROFILEAPI.H
C:\PROGRAM FILES (X86)\WINDOWS KITS\8.1\INCLUDE\UM\HEAPAPI.H
C:\PROGRAM FILES (X86)\WINDOWS KITS\8.1\INCLUDE\UM\IOAPISET.H
C:\PROGRAM FILES (X86)\WINDOWS KITS\8.1\INCLUDE\UM\SYNCHAPI.H
C:\PROGRAM FILES (X86)\WINDOWS KITS\8.1\INCLUDE\UM\INTERLOCKEDAPI.H
C:\PROGRAM FILES (X86)\WINDOWS KITS\8.1\INCLUDE\UM\PROCESSTHREADSAPI.H
C:\PROGRAM FILES (X86)\WINDOWS KITS\8.1\INCLUDE\UM\SYSINFOAPI.H
C:\PROGRAM FILES (X86)\WINDOWS KITS\8.1\INCLUDE\UM\MEMORYAPI.H
C:\PROGRAM FILES (X86)\WINDOWS KITS\8.1\INCLUDE\UM\THREADPOOLLEGACYAPISET.H
C:\PROGRAM FILES (X86)\WINDOWS KITS\8.1\INCLUDE\UM\THREADPOOLAPISET.H
C:\PROGRAM FILES (X86)\WINDOWS KITS\8.1\INCLUDE\UM\BEMAPISET.H
C:\PROGRAM FILES (X86)\WINDOWS KITS\8.1\INCLUDE\UM\JOBAPI.H
C:\PROGRAM FILES (X86)\WINDOWS KITS\8.1\INCLUDE\UM\WOW64APISET.H
C:\PROGRAM FILES (X86)\WINDOWS KITS\8.1\INCLUDE\UM\LIBLOADERAPI.H
C:\PROGRAM FILES (X86)\WINDOWS KITS\8.1\INCLUDE\UM\SECURITYBASEAPI.H
C:\PROGRAM FILES (X86)\WINDOWS KITS\8.1\INCLUDE\UM\NAMESPACEAPI.H
C:\PROGRAM FILES (X86)\WINDOWS KITS\8.1\INCLUDE\UM\SYSTEMTOPOLOGYAPI.H
C:\PROGRAM FILES (X86)\WINDOWS KITS\8.1\INCLUDE\UM\PROCESSTOPOLOGYAPI.H
C:\PROGRAM FILES (X86)\WINDOWS KITS\8.1\INCLUDE\UM\SECURITYAPPCONTAINER.H
C:\PROGRAM FILES (X86)\WINDOWS KITS\8.1\INCLUDE\UM\REALTIMEAPISET.H
C:\PROGRAM FILES (X86)\WINDOWS KITS\8.1\INCLUDE\SHARED\WINERROR.H
C:\PROGRAM FILES (X86)\WINDOWS KITS\8.1\INCLUDE\UM\TIMEZONEAPI.H
C:\PROGRAM FILES (X86)\WINDOWS KITS\8.1\INCLUDE\UM\WINGDI.H
C:\PROGRAM FILES (X86)\WINDOWS KITS\8.1\INCLUDE\SHARED\PSHPACK1.H
C:\PROGRAM FILES (X86)\WINDOWS KITS\8.1\INCLUDE\UM\WINUSER.H
C:\PROGRAM FILES (X86)\WINDOWS KITS\8.1\INCLUDE\SHARED\TVOUT.H
C:\PROGRAM FILES (X86)\WINDOWS KITS\8.1\INCLUDE\UM\WINNLS.H
C:\PROGRAM FILES (X86)\WINDOWS KITS\8.1\INCLUDE\UM\DATETIMEAPI.H
C:\PROGRAM FILES (X86)\WINDOWS KITS\8.1\INCLUDE\UM\STRINGAPISET.H
C:\PROGRAM FILES (X86)\WINDOWS KITS\8.1\INCLUDE\UM\WINCON.H
C:\PROGRAM FILES (X86)\WINDOWS KITS\8.1\INCLUDE\UM\CONSOLEAPI.H
C:\PROGRAM FILES (X86)\WINDOWS KITS\8.1\INCLUDE\UM\WINVER.H
C:\PROGRAM FILES (X86)\WINDOWS KITS\8.1\INCLUDE\UM\VERRSRC.H
C:\PROGRAM FILES (X86)\WINDOWS KITS\8.1\INCLUDE\UM\WINREG.H
C:\PROGRAM FILES (X86)\WINDOWS KITS\8.1\INCLUDE\UM\REASON.H
C:\PROGRAM FILES (X86)\WINDOWS KITS\8.1\INCLUDE\UM\WINNETWK.H
C:\PROGRAM FILES (X86)\WINDOWS KITS\8.1\INCLUDE\SHARED\WNNC.H
C:\PROGRAM FILES (X86)\WINDOWS KITS\8.1\INCLUDE\SHARED\CDERR.H
C:\PROGRAM FILES (X86)\WINDOWS KITS\8.1\INCLUDE\UM\DDE.H
C:\PROGRAM FILES (X86)\WINDOWS KITS\8.1\INCLUDE\UM\DDEML.H
C:\PROGRAM FILES (X86)\WINDOWS KITS\8.1\INCLUDE\UM\DLGS.H
C:\PROGRAM FILES (X86)\WINDOWS KITS\8.1\INCLUDE\UM\LZEXPAND.H
C:\PROGRAM FILES (X86)\WINDOWS KITS\8.1\INCLUDE\UM\MMSYSTEM.H
C:\PROGRAM FILES (X86)\WINDOWS KITS\8.1\INCLUDE\UM\MMSYSCOM.H
C:\PROGRAM FILES (X86)\WINDOWS KITS\8.1\INCLUDE\UM\MCIAPI.H
C:\PROGRAM FILES (X86)\WINDOWS KITS\8.1\INCLUDE\UM\MMISCAPI.H
C:\PROGRAM FILES (X86)\WINDOWS KITS\8.1\INCLUDE\UM\MMISCAPI2.H
C:\PROGRAM FILES (X86)\WINDOWS KITS\8.1\INCLUDE\UM\PLAYSOUNDAPI.H
C:\PROGRAM FILES (X86)\WINDOWS KITS\8.1\INCLUDE\UM\MMEAPI.H
C:\PROGRAM FILES (X86)\WINDOWS KITS\8.1\INCLUDE\UM\TIMEAPI.H
C:\PROGRAM FILES (X86)\WINDOWS KITS\8.1\INCLUDE\UM\JOYSTICKAPI.H
C:\PROGRAM FILES (X86)\WINDOWS KITS\8.1\INCLUDE\UM\NB30.H
C:\PROGRAM FILES (X86)\WINDOWS KITS\8.1\INCLUDE\SHARED\RPC.H
C:\PROGRAM FILES (X86)\WINDOWS KITS\8.1\INCLUDE\SHARED\RPCDCE.H
C:\PROGRAM FILES (X86)\WINDOWS KITS\8.1\INCLUDE\SHARED\RPCDCEP.H
C:\PROGRAM FILES (X86)\WINDOWS KITS\8.1\INCLUDE\UM\RPCNSI.H
C:\PROGRAM FILES (X86)\WINDOWS KITS\8.1\INCLUDE\SHARED\RPCNTERR.H
C:\PROGRAM FILES (X86)\WINDOWS KITS\8.1\INCLUDE\SHARED\RPCASYNC.H
C:\PROGRAM FILES (X86)\WINDOWS KITS\8.1\INCLUDE\UM\SHELLAPI.H
C:\PROGRAM FILES (X86)\WINDOWS KITS\8.1\INCLUDE\UM\WINPERF.H
C:\PROGRAM FILES (X86)\WINDOWS KITS\8.1\INCLUDE\UM\WINSOCK.H
C:\PROGRAM FILES (X86)\WINDOWS KITS\8.1\INCLUDE\SHARED\INADDR.H
C:\PROGRAM FILES (X86)\WINDOWS KITS\8.1\INCLUDE\UM\WINCRYPT.H
C:\PROGRAM FILES (X86)\WINDOWS KITS\8.1\INCLUDE\SHARED\BCRYPT.H
C:\PROGRAM FILES (X86)\WINDOWS KITS\8.1\INCLUDE\UM\NCRYPT.H
C:\PROGRAM FILES (X86)\WINDOWS KITS\8.1\INCLUDE\UM\DPAPI.H
C:\PROGRAM FILES (X86)\WINDOWS KITS\8.1\INCLUDE\UM\WINEFS.H
C:\PROGRAM FILES (X86)\WINDOWS KITS\8.1\INCLUDE\UM\WINSCARD.H
C:\PROGRAM FILES (X86)\WINDOWS KITS\8.1\INCLUDE\SHARED\WTYPES.H
C:\PROGRAM FILES (X86)\WINDOWS KITS\8.1\INCLUDE\SHARED\RPCNDR.H
C:\PROGRAM FILES (X86)\WINDOWS KITS\8.1\INCLUDE\UM\RPCNSIP.H
C:\PROGRAM FILES (X86)\WINDOWS KITS\8.1\INCLUDE\SHARED\RPCSAL.H
C:\PROGRAM FILES (X86)\WINDOWS KITS\8.1\INCLUDE\SHARED\WTYPESBASE.H
C:\PROGRAM FILES (X86)\WINDOWS KITS\8.1\INCLUDE\UM\WINIOCTL.H
C:\PROGRAM FILES (X86)\WINDOWS KITS\8.1\INCLUDE\SHARED\WINSMCRD.H
C:\PROGRAM FILES (X86)\WINDOWS KITS\8.1\INCLUDE\UM\WINSPOOL.H
C:\PROGRAM FILES (X86)\WINDOWS KITS\8.1\INCLUDE\UM\PRSHT.H
C:\PROGRAM FILES (X86)\WINDOWS KITS\8.1\INCLUDE\UM\OLE2.H
C:\PROGRAM FILES (X86)\WINDOWS KITS\8.1\INCLUDE\UM\OBJBASE.H
C:\PROGRAM FILES (X86)\WINDOWS KITS\8.1\INCLUDE\UM\COMBASEAPI.H
C:\PROGRAM FILES (X86)\WINDOWS KITS\8.1\INCLUDE\UM\UNKNWNBASE.H
C:\PROGRAM FILES (X86)\WINDOWS KITS\8.1\INCLUDE\UM\OBJIDLBASE.H
C:\PROGRAM FILES (X86)\WINDOWS KITS\8.1\INCLUDE\UM\CGUID.H
C:\PROGRAM FILES (X86)\WINDOWS KITS\8.1\INCLUDE\UM\OBJIDL.H
C:\PROGRAM FILES (X86)\WINDOWS KITS\8.1\INCLUDE\UM\UNKNWN.H
C:\PROGRAM FILES (X86)\WINDOWS KITS\8.1\INCLUDE\UM\URLMON.H
C:\PROGRAM FILES (X86)\WINDOWS KITS\8.1\INCLUDE\UM\OLEIDL.H
C:\PROGRAM FILES (X86)\WINDOWS KITS\8.1\INCLUDE\UM\SERVPROV.H
C:\PROGRAM FILES (X86)\WINDOWS KITS\8.1\INCLUDE\UM\MSXML.H
C:\PROGRAM FILES (X86)\WINDOWS KITS\8.1\INCLUDE\UM\OAIDL.H
C:\PROGRAM FILES (X86)\WINDOWS KITS\8.1\INCLUDE\UM\PROPIDL.H
C:\PROGRAM FILES (X86)\WINDOWS KITS\8.1\INCLUDE\UM\OLEAUTO.H
C:\PROGRAM FILES (X86)\WINDOWS KITS\8.1\INCLUDE\UM\COMMDLG.H
C:\PROGRAM FILES (X86)\WINDOWS KITS\8.1\INCLUDE\SHARED\STRALIGN.H
C:\PROGRAM FILES (X86)\WINDOWS KITS\8.1\INCLUDE\UM\WINSVC.H
C:\PROGRAM FILES (X86)\WINDOWS KITS\8.1\INCLUDE\UM\MCX.H
C:\PROGRAM FILES (X86)\WINDOWS KITS\8.1\INCLUDE\UM\IMM.H
C:\PROGRAM FILES (X86)\WINDOWS KITS\8.1\INCLUDE\UM\IME_CMODES.H
C:\PROGRAM FILES (X86)\MICROSOFT VISUAL STUDIO 12.0\VC\INCLUDE\VCCLR.H
C:\PROGRAM FILES (X86)\MICROSOFT VISUAL STUDIO 12.0\VC\INCLUDE\GCROOT.H
C:\PROGRAM FILES (X86)\MICROSOFT VISUAL STUDIO 12.0\VC\INCLUDE\MSCLR\GCROOT.H
C:\PROGRAM FILES (X86)\MICROSOFT VISUAL STUDIO 12.0\VC\INCLUDE\MEMORY
C:\PROGRAM FILES (X86)\MICROSOFT VISUAL STUDIO 12.0\VC\INCLUDE\STDINT.H
C:\PROGRAM FILES (X86)\MICROSOFT VISUAL STUDIO 12.0\VC\INCLUDE\MSCLR\MARSHAL_CPPSTD.H
C:\PROGRAM FILES (X86)\MICROSOFT VISUAL STUDIO 12.0\VC\INCLUDE\VECTOR
C:\PROGRAM FILES (X86)\DCMTK\INCLUDE\DCMTK\DCMDATA\DCTK.H
C:\PROGRAM FILES (X86)\DCMTK\INCLUDE\DCMTK\CONFIG\OSCONFIG.H
C:\PROGRAM FILES (X86)\DCMTK\INCLUDE\DCMTK\DCMDATA\DCTYPES.H
C:\PROGRAM FILES (X86)\DCMTK\INCLUDE\DCMTK\OFLOG\OFLOG.H
C:\PROGRAM FILES (X86)\DCMTK\INCLUDE\DCMTK\OFLOG\LOGGER.H
C:\PROGRAM FILES (X86)\DCMTK\INCLUDE\DCMTK\OFLOG\CONFIG.H
C:\PROGRAM FILES (X86)\DCMTK\INCLUDE\DCMTK\OFLOG\CONFIG\WIN32.H
C:\PROGRAM FILES (X86)\DCMTK\INCLUDE\DCMTK\OFLOG\HELPERS\THREADCF.H
C:\PROGRAM FILES (X86)\DCMTK\INCLUDE\DCMTK\OFSTD\OFSTDINC.H
C:\PROGRAM FILES (X86)\DCMTK\INCLUDE\DCMTK\OFLOG\LOGLEVEL.H
C:\PROGRAM FILES (X86)\DCMTK\INCLUDE\DCMTK\OFLOG\STREAMS.H
C:\PROGRAM FILES (X86)\DCMTK\INCLUDE\DCMTK\OFLOG\TSTRING.H
C:\PROGRAM FILES (X86)\DCMTK\INCLUDE\DCMTK\OFSTD\OFSTRING.H
C:\PROGRAM FILES (X86)\DCMTK\INCLUDE\DCMTK\OFSTD\OFTYPES.H
C:\PROGRAM FILES (X86)\MICROSOFT VISUAL STUDIO 12.0\VC\INCLUDE\SYS\TYPES.H
C:\PROGRAM FILES (X86)\DCMTK\INCLUDE\DCMTK\OFSTD\OFCAST.H
C:\PROGRAM FILES (X86)\MICROSOFT VISUAL STUDIO 12.0\VC\INCLUDE\CASSERT
C:\PROGRAM FILES (X86)\MICROSOFT VISUAL STUDIO 12.0\VC\INCLUDE\ASSERT.H
C:\PROGRAM FILES (X86)\DCMTK\INCLUDE\DCMTK\OFSTD\OFSTREAM.H
C:\PROGRAM FILES (X86)\MICROSOFT VISUAL STUDIO 12.0\VC\INCLUDE\IOSTREAM
C:\PROGRAM FILES (X86)\MICROSOFT VISUAL STUDIO 12.0\VC\INCLUDE\FSTREAM
C:\PROGRAM FILES (X86)\MICROSOFT VISUAL STUDIO 12.0\VC\INCLUDE\IOMANIP
C:\PROGRAM FILES (X86)\MICROSOFT VISUAL STUDIO 12.0\VC\INCLUDE\XLOCMON
C:\PROGRAM FILES (X86)\MICROSOFT VISUAL STUDIO 12.0\VC\INCLUDE\XLOCTIME
C:\PROGRAM FILES (X86)\MICROSOFT VISUAL STUDIO 12.0\VC\INCLUDE\CTIME
C:\PROGRAM FILES (X86)\MICROSOFT VISUAL STUDIO 12.0\VC\INCLUDE\TIME.H
C:\PROGRAM FILES (X86)\MICROSOFT VISUAL STUDIO 12.0\VC\INCLUDE\TIME.INL
C:\PROGRAM FILES (X86)\MICROSOFT VISUAL STUDIO 12.0\VC\INCLUDE\SSTREAM
C:\PROGRAM FILES (X86)\DCMTK\INCLUDE\DCMTK\OFLOG\SPI\APNDATCH.H
C:\PROGRAM FILES (X86)\DCMTK\INCLUDE\DCMTK\OFLOG\APPENDER.H
C:\PROGRAM FILES (X86)\DCMTK\INCLUDE\DCMTK\OFLOG\LAYOUT.H
C:\PROGRAM FILES (X86)\DCMTK\INCLUDE\DCMTK\OFLOG\HELPERS\LLOGUSER.H
C:\PROGRAM FILES (X86)\DCMTK\INCLUDE\DCMTK\OFLOG\HELPERS\PROPERTY.H
C:\PROGRAM FILES (X86)\DCMTK\INCLUDE\DCMTK\OFSTD\OFMAP.H
C:\PROGRAM FILES (X86)\DCMTK\INCLUDE\DCMTK\OFSTD\OFLIST.H
C:\PROGRAM FILES (X86)\DCMTK\INCLUDE\DCMTK\OFLOG\HELPERS\TIMEHELP.H
C:\PROGRAM FILES (X86)\DCMTK\INCLUDE\DCMTK\OFLOG\SPI\LOGEVENT.H
C:\PROGRAM FILES (X86)\DCMTK\INCLUDE\DCMTK\OFLOG\NDC.H
C:\PROGRAM FILES (X86)\DCMTK\INCLUDE\DCMTK\OFLOG\HELPERS\THREADS.H
C:\PROGRAM FILES (X86)\DCMTK\INCLUDE\DCMTK\OFLOG\HELPERS\POINTER.H
C:\PROGRAM FILES (X86)\DCMTK\INCLUDE\DCMTK\OFSTD\OFSTACK.H
C:\PROGRAM FILES (X86)\DCMTK\INCLUDE\DCMTK\OFSTD\OFAPTR.H
C:\PROGRAM FILES (X86)\DCMTK\INCLUDE\DCMTK\OFLOG\SPI\FILTER.H
C:\PROGRAM FILES (X86)\DCMTK\INCLUDE\DCMTK\OFLOG\SPI\LOGFACT.H
C:\PROGRAM FILES (X86)\DCMTK\INCLUDE\DCMTK\OFLOG\LOGMACRO.H
C:\PROGRAM FILES (X86)\DCMTK\INCLUDE\DCMTK\OFSTD\OFCONAPP.H
C:\PROGRAM FILES (X86)\DCMTK\INCLUDE\DCMTK\OFSTD\OFCMDLN.H
C:\PROGRAM FILES (X86)\DCMTK\INCLUDE\DCMTK\OFSTD\OFCONSOL.H
C:\PROGRAM FILES (X86)\DCMTK\INCLUDE\DCMTK\OFSTD\OFTHREAD.H
C:\PROGRAM FILES (X86)\DCMTK\INCLUDE\DCMTK\DCMDATA\DCSWAP.H
C:\PROGRAM FILES (X86)\DCMTK\INCLUDE\DCMTK\DCMDATA\DCERROR.H
C:\PROGRAM FILES (X86)\DCMTK\INCLUDE\DCMTK\OFSTD\OFCOND.H
C:\PROGRAM FILES (X86)\DCMTK\INCLUDE\DCMTK\DCMDATA\DCXFER.H
C:\PROGRAM FILES (X86)\DCMTK\INCLUDE\DCMTK\DCMDATA\DCVR.H
C:\PROGRAM FILES (X86)\DCMTK\INCLUDE\DCMTK\OFSTD\OFGLOBAL.H
C:\PROGRAM FILES (X86)\DCMTK\INCLUDE\DCMTK\DCMDATA\DCISTRMA.H
C:\PROGRAM FILES (X86)\DCMTK\INCLUDE\DCMTK\OFSTD\OFFILE.H
C:\PROGRAM FILES (X86)\DCMTK\INCLUDE\DCMTK\OFSTD\OFSTD.H
C:\PROGRAM FILES (X86)\MICROSOFT VISUAL STUDIO 12.0\VC\INCLUDE\CSTDARG
C:\PROGRAM FILES (X86)\MICROSOFT VISUAL STUDIO 12.0\VC\INCLUDE\SYS\STAT.H
C:\PROGRAM FILES (X86)\MICROSOFT VISUAL STUDIO 12.0\VC\INCLUDE\SYS\STAT.INL
C:\PROGRAM FILES (X86)\DCMTK\INCLUDE\DCMTK\DCMDATA\DCOSTRMA.H
C:\PROGRAM FILES (X86)\DCMTK\INCLUDE\DCMTK\DCMDATA\DCUID.H
C:\PROGRAM FILES (X86)\DCMTK\INCLUDE\DCMTK\DCMDATA\DCVM.H
C:\PROGRAM FILES (X86)\DCMTK\INCLUDE\DCMTK\OFSTD\OFDEFINE.H
C:\PROGRAM FILES (X86)\DCMTK\INCLUDE\DCMTK\DCMDATA\DCTAGKEY.H
C:\PROGRAM FILES (X86)\DCMTK\INCLUDE\DCMTK\DCMDATA\DCTAG.H
C:\PROGRAM FILES (X86)\DCMTK\INCLUDE\DCMTK\DCMDATA\DCDICENT.H
C:\PROGRAM FILES (X86)\DCMTK\INCLUDE\DCMTK\DCMDATA\DCHASHDI.H
C:\PROGRAM FILES (X86)\DCMTK\INCLUDE\DCMTK\DCMDATA\DCDICT.H
C:\PROGRAM FILES (X86)\DCMTK\INCLUDE\DCMTK\DCMDATA\DCDEFTAG.H
C:\PROGRAM FILES (X86)\DCMTK\INCLUDE\DCMTK\DCMDATA\DCOBJECT.H
C:\PROGRAM FILES (X86)\DCMTK\INCLUDE\DCMTK\DCMDATA\DCSTACK.H
C:\PROGRAM FILES (X86)\DCMTK\INCLUDE\DCMTK\DCMDATA\DCELEM.H
C:\PROGRAM FILES (X86)\DCMTK\INCLUDE\DCMTK\DCMDATA\DCITEM.H
C:\PROGRAM FILES (X86)\DCMTK\INCLUDE\DCMTK\DCMDATA\DCLIST.H
C:\PROGRAM FILES (X86)\DCMTK\INCLUDE\DCMTK\DCMDATA\DCPCACHE.H
C:\PROGRAM FILES (X86)\DCMTK\INCLUDE\DCMTK\DCMDATA\DCMETINF.H
C:\PROGRAM FILES (X86)\DCMTK\INCLUDE\DCMTK\DCMDATA\DCDATSET.H
C:\PROGRAM FILES (X86)\DCMTK\INCLUDE\DCMTK\DCMDATA\DCSEQUEN.H
C:\PROGRAM FILES (X86)\DCMTK\INCLUDE\DCMTK\DCMDATA\DCFILEFO.H
C:\PROGRAM FILES (X86)\DCMTK\INCLUDE\DCMTK\DCMDATA\DCDICDIR.H
C:\PROGRAM FILES (X86)\DCMTK\INCLUDE\DCMTK\DCMDATA\DCDIRREC.H
C:\PROGRAM FILES (X86)\DCMTK\INCLUDE\DCMTK\DCMDATA\DCVRULUP.H
C:\PROGRAM FILES (X86)\DCMTK\INCLUDE\DCMTK\DCMDATA\DCVRUL.H
C:\PROGRAM FILES (X86)\DCMTK\INCLUDE\DCMTK\DCMDATA\DCPIXSEQ.H
C:\PROGRAM FILES (X86)\DCMTK\INCLUDE\DCMTK\DCMDATA\DCOFSETL.H
C:\PROGRAM FILES (X86)\DCMTK\INCLUDE\DCMTK\DCMDATA\DCBYTSTR.H
C:\PROGRAM FILES (X86)\DCMTK\INCLUDE\DCMTK\DCMDATA\DCVRAE.H
C:\PROGRAM FILES (X86)\DCMTK\INCLUDE\DCMTK\DCMDATA\DCVRAS.H
C:\PROGRAM FILES (X86)\DCMTK\INCLUDE\DCMTK\DCMDATA\DCVRCS.H
C:\PROGRAM FILES (X86)\DCMTK\INCLUDE\DCMTK\DCMDATA\DCVRDA.H
C:\PROGRAM FILES (X86)\DCMTK\INCLUDE\DCMTK\OFSTD\OFDATE.H
C:\PROGRAM FILES (X86)\DCMTK\INCLUDE\DCMTK\DCMDATA\DCVRDS.H
C:\PROGRAM FILES (X86)\DCMTK\INCLUDE\DCMTK\OFSTD\OFVECTOR.H
C:\PROGRAM FILES (X86)\DCMTK\INCLUDE\DCMTK\DCMDATA\DCVRDT.H
C:\PROGRAM FILES (X86)\DCMTK\INCLUDE\DCMTK\OFSTD\OFDATIME.H
C:\PROGRAM FILES (X86)\DCMTK\INCLUDE\DCMTK\OFSTD\OFTIME.H
C:\PROGRAM FILES (X86)\DCMTK\INCLUDE\DCMTK\DCMDATA\DCVRIS.H
C:\PROGRAM FILES (X86)\DCMTK\INCLUDE\DCMTK\DCMDATA\DCVRTM.H
C:\PROGRAM FILES (X86)\DCMTK\INCLUDE\DCMTK\DCMDATA\DCVRUI.H
C:\PROGRAM FILES (X86)\DCMTK\INCLUDE\DCMTK\DCMDATA\DCCHRSTR.H
C:\PROGRAM FILES (X86)\DCMTK\INCLUDE\DCMTK\DCMDATA\DCVRLO.H
C:\PROGRAM FILES (X86)\DCMTK\INCLUDE\DCMTK\DCMDATA\DCVRLT.H
C:\PROGRAM FILES (X86)\DCMTK\INCLUDE\DCMTK\DCMDATA\DCVRPN.H
C:\PROGRAM FILES (X86)\DCMTK\INCLUDE\DCMTK\DCMDATA\DCVRSH.H
C:\PROGRAM FILES (X86)\DCMTK\INCLUDE\DCMTK\DCMDATA\DCVRST.H
C:\PROGRAM FILES (X86)\DCMTK\INCLUDE\DCMTK\DCMDATA\DCVRUT.H
C:\PROGRAM FILES (X86)\DCMTK\INCLUDE\DCMTK\DCMDATA\DCVROBOW.H
C:\PROGRAM FILES (X86)\DCMTK\INCLUDE\DCMTK\DCMDATA\DCPIXEL.H
C:\PROGRAM FILES (X86)\DCMTK\INCLUDE\DCMTK\DCMDATA\DCVRPOBW.H
C:\PROGRAM FILES (X86)\DCMTK\INCLUDE\DCMTK\DCMDATA\DCOVLAY.H
C:\PROGRAM FILES (X86)\DCMTK\INCLUDE\DCMTK\DCMDATA\DCVRAT.H
C:\PROGRAM FILES (X86)\DCMTK\INCLUDE\DCMTK\DCMDATA\DCVRSS.H
C:\PROGRAM FILES (X86)\DCMTK\INCLUDE\DCMTK\DCMDATA\DCVRUS.H
C:\PROGRAM FILES (X86)\DCMTK\INCLUDE\DCMTK\DCMDATA\DCVRSL.H
C:\PROGRAM FILES (X86)\DCMTK\INCLUDE\DCMTK\DCMDATA\DCVRFL.H
C:\PROGRAM FILES (X86)\DCMTK\INCLUDE\DCMTK\DCMDATA\DCVRFD.H
C:\PROGRAM FILES (X86)\DCMTK\INCLUDE\DCMTK\DCMDATA\DCVROF.H
C:\PROGRAM FILES (X86)\DCMTK\INCLUDE\DCMTK\DCMDATA\CMDLNARG.H
C:\PROGRAM FILES (X86)\DCMTK\INCLUDE\DCMTK\DCMIMGLE\DCMIMAGE.H
C:\PROGRAM FILES (X86)\DCMTK\INCLUDE\DCMTK\DCMIMGLE\DIMOIMG.H
C:\PROGRAM FILES (X86)\DCMTK\INCLUDE\DCMTK\DCMIMGLE\DIIMAGE.H
C:\PROGRAM FILES (X86)\DCMTK\INCLUDE\DCMTK\DCMDATA\DCFCACHE.H
C:\PROGRAM FILES (X86)\DCMTK\INCLUDE\DCMTK\DCMIMGLE\DIOVLAY.H
C:\PROGRAM FILES (X86)\DCMTK\INCLUDE\DCMTK\DCMIMGLE\DIOBJCOU.H
C:\PROGRAM FILES (X86)\DCMTK\INCLUDE\DCMTK\DCMIMGLE\DIOVDAT.H
C:\PROGRAM FILES (X86)\DCMTK\INCLUDE\DCMTK\DCMIMGLE\DIOVPLN.H
C:\PROGRAM FILES (X86)\DCMTK\INCLUDE\DCMTK\DCMIMGLE\DIUTILS.H
C:\PROGRAM FILES (X86)\DCMTK\INCLUDE\DCMTK\DCMIMGLE\DIMOPX.H
C:\PROGRAM FILES (X86)\DCMTK\INCLUDE\DCMTK\DCMIMGLE\DIPIXEL.H
C:\PROGRAM FILES (X86)\DCMTK\INCLUDE\DCMTK\DCMIMGLE\DIMOMOD.H
C:\PROGRAM FILES (X86)\DCMTK\INCLUDE\DCMTK\DCMIMGLE\DILUPTAB.H
C:\PROGRAM FILES (X86)\DCMTK\INCLUDE\DCMTK\DCMIMGLE\DIBASLUT.H
C:\PROGRAM FILES (X86)\DCMTK\INCLUDE\DCMTK\DCMIMGLE\DIMOOPX.H
C:\PROGRAM FILES (X86)\DCMTK\INCLUDE\DCMTK\DCMIMGLE\DIDISPFN.H
